multi/project_1/project_1.sim/sim_1/behav/xsim/dump.vcd
$date
   Wed Jun 14 16:48:58 2023
$end
$version
  2018.3
$end
$timescale
  1ps
$end
$scope module mult_line_tb $end
$var reg 1 ! clk $end
$var reg 1 " rst_n $end
$var reg 1 # rdy $end
$var reg 8 $ mult_1 [7:0] $end
$var reg 8 % mult_2 [7:0] $end
$var wire 16 & dout [15:0] $end
$var wire 1 ' valid $end
$var parameter 32 ( MULTLEN_1 [31:0] $end
$var parameter 32 ) MULTLEN_2 [31:0] $end
$scope module mult_line_dut $end
$var wire 1 * clk $end
$var wire 1 + rst_n $end
$var wire 1 , rdy $end
$var wire 8 - mult_1 [7:0] $end
$var wire 8 . mult_2 [7:0] $end
$var wire 16 & dout [15:0] $end
$var wire 1 ' valid $end
$var wire 8 / rdy_t [7:0] $end
$var parameter 32 0 MULTLEN_1 [31:0] $end
$var parameter 32 1 MULTLEN_2 [31:0] $end
$scope module mult_cell_dut $end
$var wire 1 * clk $end
$var wire 1 + rst_n $end
$var wire 1 , en $end
$var wire 16 2 mult_1_i [15:0] $end
$var wire 8 . mult_2_i [7:0] $end
$var wire 16 3 mult_acci [15:0] $end
$var reg 16 4 mult_1_o [15:0] $end
$var reg 16 5 mult_2_o [15:0] $end
$var reg 16 6 mult_acco [15:0] $end
$var reg 1 7 rdy $end
$var reg 16 8 mult_acco_t [15:0] $end
$var parameter 32 9 MULTLEN_1 [31:0] $end
$var parameter 32 : MULTLEN_2 [31:0] $end
$upscope $end
$scope module MULT_STEP[1].mult_cell_step $end
$var wire 1 * clk $end
$var wire 1 + rst_n $end
$var wire 1 ; en $end
$var wire 16 < mult_1_i [15:0] $end
$var wire 8 = mult_2_i [7:0] $end
$var wire 16 > mult_acci [15:0] $end
$var reg 16 ? mult_1_o [15:0] $end
$var reg 16 @ mult_2_o [15:0] $end
$var reg 16 A mult_acco [15:0] $end
$var reg 1 B rdy $end
$var reg 16 C mult_acco_t [15:0] $end
$var parameter 32 D MULTLEN_1 [31:0] $end
$var parameter 32 E MULTLEN_2 [31:0] $end
$upscope $end
$scope module MULT_STEP[2].mult_cell_step $end
$var wire 1 * clk $end
$var wire 1 + rst_n $end
$var wire 1 F en $end
$var wire 16 G mult_1_i [15:0] $end
$var wire 8 H mult_2_i [7:0] $end
$var wire 16 I mult_acci [15:0] $end
$var reg 16 J mult_1_o [15:0] $end
$var reg 16 K mult_2_o [15:0] $end
$var reg 16 L mult_acco [15:0] $end
$var reg 1 M rdy $end
$var reg 16 N mult_acco_t [15:0] $end
$var parameter 32 O MULTLEN_1 [31:0] $end
$var parameter 32 P MULTLEN_2 [31:0] $end
$upscope $end
$scope module MULT_STEP[3].mult_cell_step $end
$var wire 1 * clk $end
$var wire 1 + rst_n $end
$var wire 1 Q en $end
$var wire 16 R mult_1_i [15:0] $end
$var wire 8 S mult_2_i [7:0] $end
$var wire 16 T mult_acci [15:0] $end
$var reg 16 U mult_1_o [15:0] $end
$var reg 16 V mult_2_o [15:0] $end
$var reg 16 W mult_acco [15:0] $end
$var reg 1 X rdy $end
$var reg 16 Y mult_acco_t [15:0] $end
$var parameter 32 Z MULTLEN_1 [31:0] $end
$var parameter 32 [ MULTLEN_2 [31:0] $end
$upscope $end
$scope module MULT_STEP[4].mult_cell_step $end
$var wire 1 * clk $end
$var wire 1 + rst_n $end
$var wire 1 \ en $end
$var wire 16 ] mult_1_i [15:0] $end
$var wire 8 ^ mult_2_i [7:0] $end
$var wire 16 _ mult_acci [15:0] $end
$var reg 16 ` mult_1_o [15:0] $end
$var reg 16 a mult_2_o [15:0] $end
$var reg 16 b mult_acco [15:0] $end
$var reg 1 c rdy $end
$var reg 16 d mult_acco_t [15:0] $end
$var parameter 32 e MULTLEN_1 [31:0] $end
$var parameter 32 f MULTLEN_2 [31:0] $end
$upscope $end
$scope module MULT_STEP[5].mult_cell_step $end
$var wire 1 * clk $end
$var wire 1 + rst_n $end
$var wire 1 g en $end
$var wire 16 h mult_1_i [15:0] $end
$var wire 8 i mult_2_i [7:0] $end
$var wire 16 j mult_acci [15:0] $end
$var reg 16 k mult_1_o [15:0] $end
$var reg 16 l mult_2_o [15:0] $end
$var reg 16 m mult_acco [15:0] $end
$var reg 1 n rdy $end
$var reg 16 o mult_acco_t [15:0] $end
$var parameter 32 p MULTLEN_1 [31:0] $end
$var parameter 32 q MULTLEN_2 [31:0] $end
$upscope $end
$scope module MULT_STEP[6].mult_cell_step $end
$var wire 1 * clk $end
$var wire 1 + rst_n $end
$var wire 1 r en $end
$var wire 16 s mult_1_i [15:0] $end
$var wire 8 t mult_2_i [7:0] $end
$var wire 16 u mult_acci [15:0] $end
$var reg 16 v mult_1_o [15:0] $end
$var reg 16 w mult_2_o [15:0] $end
$var reg 16 x mult_acco [15:0] $end
$var reg 1 y rdy $end
$var reg 16 z mult_acco_t [15:0] $end
$var parameter 32 { MULTLEN_1 [31:0] $end
$var parameter 32 | MULTLEN_2 [31:0] $end
$upscope $end
$scope module MULT_STEP[7].mult_cell_step $end
$var wire 1 * clk $end
$var wire 1 + rst_n $end
$var wire 1 } en $end
$var wire 16 ~ mult_1_i [15:0] $end
$var wire 8 !! mult_2_i [7:0] $end
$var wire 16 "! mult_acci [15:0] $end
$var reg 16 #! mult_1_o [15:0] $end
$var reg 16 $! mult_2_o [15:0] $end
$var reg 16 %! mult_acco [15:0] $end
$var reg 1 &! rdy $end
$var reg 16 '! mult_acco_t [15:0] $end
$var parameter 32 (! MULTLEN_1 [31:0] $end
$var parameter 32 )! MULTLEN_2 [31:0] $end
$upscope $end
$upscope $end
$scope task reset_mod $end
$upscope $end
$upscope $end
$enddefinitions $end
#0
$dumpvars
0!
b0 !!
1"
b0 "!
0#
b0 #!
bx $
b0 $!
bx %
b0 %!
b0 &
0&!
0'
b0 '!
b1000 (
b1000 (!
b1000 )
b1000 )!
0*
1+
0,
bx -
bx .
b0 /
b1000 0
b1000 1
b0xxxxxxxx 2
b0 3
b0 4
b0 5
b0 6
07
bx 8
b1000 9
b1000 :
0;
b0 <
b0 =
b0 >
b0 ?
b0 @
b0 A
0B
b0 C
b1000 D
b1000 E
0F
b0 G
b0 H
b0 I
b0 J
b0 K
b0 L
0M
b0 N
b1000 O
b1000 P
0Q
b0 R
b0 S
b0 T
b0 U
b0 V
b0 W
0X
b0 Y
b1000 Z
b1000 [
0\
b0 ]
b0 ^
b0 _
b0 `
b0 a
b0 b
0c
b0 d
b1000 e
b1000 f
0g
b0 h
b0 i
b0 j
b0 k
b0 l
b0 m
0n
b0 o
b1000 p
b1000 q
0r
b0 s
b0 t
b0 u
b0 v
b0 w
b0 x
0y
b0 z
b1000 {
b1000 |
0}
b0 ~
$end
#5000
1!
1*
#10000
0!
0*
#15000
1!
1*
#20000
0!
0*
#25000
1!
1*
#30000
0!
0*
#35000
1!
1*
#40000
0!
0*
#45000
1!
1*
#50000
0!
0"
0*
0+
#55000
1!
1*
#60000
0!
0*
#65000
1!
1*
#70000
0!
0*
#75000
1!
1*
#80000
0!
0*
#85000
1!
1*
#90000
0!
0*
#95000
1!
1*
#100000
0!
1"
0*
1+
#105000
1!
1*
#110000
0!
0*
#115000
1!
1*
#120000
0!
1#
b11001 $
b101 %
0*
1,
b11001 -
b101 .
b11001 2
b11001 8
#125000
1!
1*
b1 /
b110010 4
b10 5
b11001 6
17
1;
b110010 <
b10 =
b11001 >
b1001011 C
#130000
0!
b10000 $
b1010 %
0*
b10000 -
b1010 .
b10000 2
b10000 8
#135000
1!
1*
b11 /
b100000 4
b101 5
b0 6
b100000 <
b101 =
b0 >
b1100100 ?
b1 @
b11001 A
1B
b100000 C
1F
b1100100 G
b1 H
b11001 I
b1111101 N
#140000
0!
b1010 $
b100 %
0*
b1010 -
b100 .
b1010 2
b1010 8
#145000
1!
1*
b111 /
b10100 4
b10 5
b10100 <
b10 =
b1000000 ?
b10 @
b100000 A
b10100 C
b1000000 G
b10 H
b100000 I
b11001000 J
b1111101 L
1M
b1100000 N
1Q
b11001000 R
b1111101 T
b101000101 Y
#150000
0!
b1111 $
b111 %
0*
b1111 -
b111 .
b1111 2
b1111 8
#155000
1!
1*
b1111 /
b11110 4
b11 5
b1111 6
b11110 <
b11 =
b1111 >
b101000 ?
b1 @
b0 A
b101101 C
b101000 G
b1 H
b0 I
b10000000 J
b1 K
b100000 L
b101000 N
b10000000 R
b1 S
b100000 T
b110010000 U
b1111101 W
1X
b10100000 Y
1\
b110010000 ]
b1111101 _
b1000001101 d
#160000
0!
b10000 $
0*
b10000 -
b10000 2
b10000 8
#165000
1!
1*
b11111 /
b100000 4
b10000 6
b100000 <
b10000 >
b111100 ?
b101101 A
b110000 C
b111100 G
b101101 I
b1010000 J
b0 K
b101000 L
b1101001 N
b1010000 R
b0 S
b101000 T
b100000000 U
b10100000 W
b1111000 Y
b100000000 ]
b10100000 _
b1100100000 `
b1111101 b
1c
b110100000 d
1g
b1100100000 h
b1111101 j
b1110011101 o
#170000
0!
b10001 $
0*
b10001 -
b10001 2
b10001 8
#175000
1!
1*
b111111 /
b100010 4
b10001 6
b100010 <
b10001 >
b1000000 ?
b110000 A
b110011 C
b1000000 G
b110000 I
b1111000 J
b1101001 L
b1110000 N
b1111000 R
b1101001 T
b10100000 U
b101000 W
b11100001 Y
b10100000 ]
b101000 _
b1000000000 `
b10100000 b
b11001000 d
b1000000000 h
b10100000 j
b11001000000 k
b1111101 m
1n
b1010100000 o
1r
b11001000000 s
b1111101 u
b11010111101 z
#180000
0!
b10010 $
0*
b10010 -
b10010 2
b10010 8
#185000
1!
b1111101 "!
b110011111101 '!
1*
b1111111 /
b100100 4
b10010 6
b100100 <
b10010 >
b1000100 ?
b110011 A
b110110 C
b1000100 G
b110011 I
b10000000 J
b1110000 L
b1110111 N
b10000000 R
b1110000 T
b11110000 U
b1101001 W
b11110000 Y
b11110000 ]
b1101001 _
b101000000 `
b101000 b
b101011001 d
b101000000 h
b101000 j
b10000000000 k
b10100000 m
b101101000 o
b10000000000 s
b10100000 u
b110010000000 v
b1111101 x
1y
b10010100000 z
1}
b110010000000 ~
#190000
0!
b10011 $
0*
b10011 -
b10011 2
b10011 8
#195000
1!
b10100000 "!
b1100100000000 #!
b1111101 %!
b1111101 &
1&!
1'
b100010100000 '!
1*
b11111111 /
b100110 4
b10011 6
b100110 <
b10011 >
b1001000 ?
b110110 A
b111001 C
b1001000 G
b110110 I
b10001000 J
b1110111 L
b1111110 N
b10001000 R
b1110111 T
b100000000 U
b1110000 W
b11111111 Y
b100000000 ]
b1110000 _
b111100000 `
b1101001 b
b101110000 d
b111100000 h
b1101001 j
b1010000000 k
b101000 m
b1001001001 o
b1010000000 s
b101000 u
b100000000000 v
b10100000 x
b1010101000 z
b100000000000 ~
#200000
0!
b10100 $
0*
b10100 -
b10100 2
b10100 8
#205000
1!
b101000 "!
b1000000000000 #!
b10100000 %!
b10100000 &
b10100101000 '!
1*
b101000 4
b10100 6
b101000 <
b10100 >
b1001100 ?
b111001 A
b111100 C
b1001100 G
b111001 I
b10010000 J
b1111110 L
b10000101 N
b10010000 R
b1111110 T
b100010000 U
b1110111 W
b100001110 Y
b100010000 ]
b1110111 _
b1000000000 `
b1110000 b
b110000111 d
b1000000000 h
b1110000 j
b1111000000 k
b1101001 m
b1001110000 o
b1111000000 s
b1101001 u
b10100000000 v
b101000 x
b10000101001 z
b10100000000 ~
#210000
0!
b10101 $
0*
b10101 -
b10101 2
b10101 8
#215000
1!
b1101001 "!
b101000000000 #!
b101000 %!
b101000 &
b11111101001 '!
1*
b101010 4
b10101 6
b101010 <
b10101 >
b1010000 ?
b111100 A
b111111 C
b1010000 G
b111100 I
b10011000 J
b10000101 L
b10001100 N
b10011000 R
b10000101 T
b100100000 U
b1111110 W
b100011101 Y
b100100000 ]
b1111110 _
b1000100000 `
b1110111 b
b110011110 d
b1000100000 h
b1110111 j
b10000000000 k
b1110000 m
b1010010111 o
b10000000000 s
b1110000 u
b11110000000 v
b1101001 x
b10001110000 z
b11110000000 ~
#220000
0!
b10110 $
0*
b10110 -
b10110 2
b10110 8
#225000
1!
b1110000 "!
b111100000000 #!
b1101001 %!
b1101001 &
b100001110000 '!
1*
b101100 4
b10110 6
b101100 <
b10110 >
b1010100 ?
b111111 A
b1000010 C
b1010100 G
b111111 I
b10100000 J
b10001100 L
b10010011 N
b10100000 R
b10001100 T
b100110000 U
b10000101 W
b100101100 Y
b100110000 ]
b10000101 _
b1001000000 `
b1111110 b
b110110101 d
b1001000000 h
b1111110 j
b10001000000 k
b1110111 m
b1010111110 o
b10001000000 s
b1110111 u
b100000000000 v
b1110000 x
b10010110111 z
b100000000000 ~
#230000
0!
b10111 $
0*
b10111 -
b10111 2
b10111 8
#235000
1!
b1110111 "!
b1000000000000 #!
b1110000 %!
b1110000 &
b100011110111 '!
1*
b101110 4
b10111 6
b101110 <
b10111 >
b1011000 ?
b1000010 A
b1000101 C
b1011000 G
b1000010 I
b10101000 J
b10010011 L
b10011010 N
b10101000 R
b10010011 T
b101000000 U
b10001100 W
b100111011 Y
b101000000 ]
b10001100 _
b1001100000 `
b10000101 b
b111001100 d
b1001100000 h
b10000101 j
b10010000000 k
b1111110 m
b1011100101 o
b10010000000 s
b1111110 u
b100010000000 v
b1110111 x
b10011111110 z
b100010000000 ~
#240000
0!
b11000 $
0*
b11000 -
b11000 2
b11000 8
#245000
1!
b1111110 "!
b1000100000000 #!
b1110111 %!
b1110111 &
b100101111110 '!
1*
b110000 4
b11000 6
b110000 <
b11000 >
b1011100 ?
b1000101 A
b1001000 C
b1011100 G
b1000101 I
b10110000 J
b10011010 L
b10100001 N
b10110000 R
b10011010 T
b101010000 U
b10010011 W
b101001010 Y
b101010000 ]
b10010011 _
b1010000000 `
b10001100 b
b111100011 d
b1010000000 h
b10001100 j
b10011000000 k
b10000101 m
b1100001100 o
b10011000000 s
b10000101 u
b100100000000 v
b1111110 x
b10101000101 z
b100100000000 ~
#250000
0!
b11001 $
0*
b11001 -
b11001 2
b11001 8
#255000
1!
b10000101 "!
b1001000000000 #!
b1111110 %!
b1111110 &
b101000000101 '!
1*
b110010 4
b11001 6
b110010 <
b11001 >
b1100000 ?
b1001000 A
b1001011 C
b1100000 G
b1001000 I
b10111000 J
b10100001 L
b10101000 N
b10111000 R
b10100001 T
b101100000 U
b10011010 W
b101011001 Y
b101100000 ]
b10011010 _
b1010100000 `
b10010011 b
b111111010 d
b1010100000 h
b10010011 j
b10100000000 k
b10001100 m
b1100110011 o
b10100000000 s
b10001100 u
b100110000000 v
b10000101 x
b10110001100 z
b100110000000 ~
#260000
0!
b11010 $
0*
b11010 -
b11010 2
b11010 8
#265000
1!
b10001100 "!
b1001100000000 #!
b10000101 %!
b10000101 &
b101010001100 '!
1*
b110100 4
b11010 6
b110100 <
b11010 >
b1100100 ?
b1001011 A
b1001110 C
b1100100 G
b1001011 I
b11000000 J
b10101000 L
b10101111 N
b11000000 R
b10101000 T
b101110000 U
b10100001 W
b101101000 Y
b101110000 ]
b10100001 _
b1011000000 `
b10011010 b
b1000010001 d
b1011000000 h
b10011010 j
b10101000000 k
b10010011 m
b1101011010 o
b10101000000 s
b10010011 u
b101000000000 v
b10001100 x
b10111010011 z
b101000000000 ~
#270000
0!
b11011 $
0*
b11011 -
b11011 2
b11011 8
#275000
1!
b10010011 "!
b1010000000000 #!
b10001100 %!
b10001100 &
b101100010011 '!
1*
b110110 4
b11011 6
b110110 <
b11011 >
b1101000 ?
b1001110 A
b1010001 C
b1101000 G
b1001110 I
b11001000 J
b10101111 L
b10110110 N
b11001000 R
b10101111 T
b110000000 U
b10101000 W
b101110111 Y
b110000000 ]
b10101000 _
b1011100000 `
b10100001 b
b1000101000 d
b1011100000 h
b10100001 j
b10110000000 k
b10011010 m
b1110000001 o
b10110000000 s
b10011010 u
b101010000000 v
b10010011 x
b11000011010 z
b101010000000 ~
#280000
0!
b11100 $
0*
b11100 -
b11100 2
b11100 8
#285000
1!
b10011010 "!
b1010100000000 #!
b10010011 %!
b10010011 &
b101110011010 '!
1*
b111000 4
b11100 6
b111000 <
b11100 >
b1101100 ?
b1010001 A
b1010100 C
b1101100 G
b1010001 I
b11010000 J
b10110110 L
b10111101 N
b11010000 R
b10110110 T
b110010000 U
b10101111 W
b110000110 Y
b110010000 ]
b10101111 _
b1100000000 `
b10101000 b
b1000111111 d
b1100000000 h
b10101000 j
b10111000000 k
b10100001 m
b1110101000 o
b10111000000 s
b10100001 u
b101100000000 v
b10011010 x
b11001100001 z
b101100000000 ~
#290000
0!
b11101 $
0*
b11101 -
b11101 2
b11101 8
#295000
1!
b10100001 "!
b1011000000000 #!
b10011010 %!
b10011010 &
b110000100001 '!
1*
b111010 4
b11101 6
b111010 <
b11101 >
b1110000 ?
b1010100 A
b1010111 C
b1110000 G
b1010100 I
b11011000 J
b10111101 L
b11000100 N
b11011000 R
b10111101 T
b110100000 U
b10110110 W
b110010101 Y
b110100000 ]
b10110110 _
b1100100000 `
b10101111 b
b1001010110 d
b1100100000 h
b10101111 j
b11000000000 k
b10101000 m
b1111001111 o
b11000000000 s
b10101000 u
b101110000000 v
b10100001 x
b11010101000 z
b101110000000 ~
#300000
0!
b11110 $
0*
b11110 -
b11110 2
b11110 8
#305000
1!
b10101000 "!
b1011100000000 #!
b10100001 %!
b10100001 &
b110010101000 '!
1*
b111100 4
b11110 6
b111100 <
b11110 >
b1110100 ?
b1010111 A
b1011010 C
b1110100 G
b1010111 I
b11100000 J
b11000100 L
b11001011 N
b11100000 R
b11000100 T
b110110000 U
b10111101 W
b110100100 Y
b110110000 ]
b10111101 _
b1101000000 `
b10110110 b
b1001101101 d
b1101000000 h
b10110110 j
b11001000000 k
b10101111 m
b1111110110 o
b11001000000 s
b10101111 u
b110000000000 v
b10101000 x
b11011101111 z
b110000000000 ~
#310000
0!
b11111 $
0*
b11111 -
b11111 2
b11111 8
#315000
1!
b10101111 "!
b1100000000000 #!
b10101000 %!
b10101000 &
b110100101111 '!
1*
b111110 4
b11111 6
b111110 <
b11111 >
b1111000 ?
b1011010 A
b1011101 C
b1111000 G
b1011010 I
b11101000 J
b11001011 L
b11010010 N
b11101000 R
b11001011 T
b111000000 U
b11000100 W
b110110011 Y
b111000000 ]
b11000100 _
b1101100000 `
b10111101 b
b1010000100 d
b1101100000 h
b10111101 j
b11010000000 k
b10110110 m
b10000011101 o
b11010000000 s
b10110110 u
b110010000000 v
b10101111 x
b11100110110 z
b110010000000 ~
#320000
0!
b100000 $
0*
b100000 -
b100000 2
b100000 8
#325000
1!
b10110110 "!
b1100100000000 #!
b10101111 %!
b10101111 &
b110110110110 '!
1*
b1000000 4
b100000 6
b1000000 <
b100000 >
b1111100 ?
b1011101 A
b1100000 C
b1111100 G
b1011101 I
b11110000 J
b11010010 L
b11011001 N
b11110000 R
b11010010 T
b111010000 U
b11001011 W
b111000010 Y
b111010000 ]
b11001011 _
b1110000000 `
b11000100 b
b1010011011 d
b1110000000 h
b11000100 j
b11011000000 k
b10111101 m
b10001000100 o
b11011000000 s
b10111101 u
b110100000000 v
b10110110 x
b11101111101 z
b110100000000 ~
#330000
0!
b100001 $
0*
b100001 -
b100001 2
b100001 8
#335000
1!
b10111101 "!
b1101000000000 #!
b10110110 %!
b10110110 &
b111000111101 '!
1*
b1000010 4
b100001 6
b1000010 <
b100001 >
b10000000 ?
b1100000 A
b1100011 C
b10000000 G
b1100000 I
b11111000 J
b11011001 L
b11100000 N
b11111000 R
b11011001 T
b111100000 U
b11010010 W
b111010001 Y
b111100000 ]
b11010010 _
b1110100000 `
b11001011 b
b1010110010 d
b1110100000 h
b11001011 j
b11100000000 k
b11000100 m
b10001101011 o
b11100000000 s
b11000100 u
b110110000000 v
b10111101 x
b11111000100 z
b110110000000 ~
#340000
0!
b100010 $
0*
b100010 -
b100010 2
b100010 8
#345000
1!
b11000100 "!
b1101100000000 #!
b10111101 %!
b10111101 &
b111011000100 '!
1*
b1000100 4
b100010 6
b1000100 <
b100010 >
b10000100 ?
b1100011 A
b1100110 C
b10000100 G
b1100011 I
b100000000 J
b11100000 L
b11100111 N
b100000000 R
b11100000 T
b111110000 U
b11011001 W
b111100000 Y
b111110000 ]
b11011001 _
b1111000000 `
b11010010 b
b1011001001 d
b1111000000 h
b11010010 j
b11101000000 k
b11001011 m
b10010010010 o
b11101000000 s
b11001011 u
b111000000000 v
b11000100 x
b100000001011 z
b111000000000 ~
#350000
0!
b100011 $
0*
b100011 -
b100011 2
b100011 8
#355000
1!
b11001011 "!
b1110000000000 #!
b11000100 %!
b11000100 &
b111101001011 '!
1*
b1000110 4
b100011 6
b1000110 <
b100011 >
b10001000 ?
b1100110 A
b1101001 C
b10001000 G
b1100110 I
b100001000 J
b11100111 L
b11101110 N
b100001000 R
b11100111 T
b1000000000 U
b11100000 W
b111101111 Y
b1000000000 ]
b11100000 _
b1111100000 `
b11011001 b
b1011100000 d
b1111100000 h
b11011001 j
b11110000000 k
b11010010 m
b10010111001 o
b11110000000 s
b11010010 u
b111010000000 v
b11001011 x
b100001010010 z
b111010000000 ~
#360000
0!
b100100 $
0*
b100100 -
b100100 2
b100100 8
#365000
1!
b11010010 "!
b1110100000000 #!
b11001011 %!
b11001011 &
b111111010010 '!
1*
b1001000 4
b100100 6
b1001000 <
b100100 >
b10001100 ?
b1101001 A
b1101100 C
b10001100 G
b1101001 I
b100010000 J
b11101110 L
b11110101 N
b100010000 R
b11101110 T
b1000010000 U
b11100111 W
b111111110 Y
b1000010000 ]
b11100111 _
b10000000000 `
b11100000 b
b1011110111 d
b10000000000 h
b11100000 j
b11111000000 k
b11011001 m
b10011100000 o
b11111000000 s
b11011001 u
b111100000000 v
b11010010 x
b100010011001 z
b111100000000 ~
#370000
0!
b100101 $
0*
b100101 -
b100101 2
b100101 8
#375000
1!
b11011001 "!
b1111000000000 #!
b11010010 %!
b11010010 &
b1000001011001 '!
1*
b1001010 4
b100101 6
b1001010 <
b100101 >
b10010000 ?
b1101100 A
b1101111 C
b10010000 G
b1101100 I
b100011000 J
b11110101 L
b11111100 N
b100011000 R
b11110101 T
b1000100000 U
b11101110 W
b1000001101 Y
b1000100000 ]
b11101110 _
b10000100000 `
b11100111 b
b1100001110 d
b10000100000 h
b11100111 j
b100000000000 k
b11100000 m
b10100000111 o
b100000000000 s
b11100000 u
b111110000000 v
b11011001 x
b100011100000 z
b111110000000 ~
#380000
0!
b100110 $
0*
b100110 -
b100110 2
b100110 8
#385000
1!
b11100000 "!
b1111100000000 #!
b11011001 %!
b11011001 &
b1000011100000 '!
1*
b1001100 4
b100110 6
b1001100 <
b100110 >
b10010100 ?
b1101111 A
b1110010 C
b10010100 G
b1101111 I
b100100000 J
b11111100 L
b100000011 N
b100100000 R
b11111100 T
b1000110000 U
b11110101 W
b1000011100 Y
b1000110000 ]
b11110101 _
b10001000000 `
b11101110 b
b1100100101 d
b10001000000 h
b11101110 j
b100001000000 k
b11100111 m
b10100101110 o
b100001000000 s
b11100111 u
b1000000000000 v
b11100000 x
b100100100111 z
b1000000000000 ~
#390000
0!
b100111 $
0*
b100111 -
b100111 2
b100111 8
#395000
1!
b11100111 "!
b10000000000000 #!
b11100000 %!
b11100000 &
b1000101100111 '!
1*
b1001110 4
b100111 6
b1001110 <
b100111 >
b10011000 ?
b1110010 A
b1110101 C
b10011000 G
b1110010 I
b100101000 J
b100000011 L
b100001010 N
b100101000 R
b100000011 T
b1001000000 U
b11111100 W
b1000101011 Y
b1001000000 ]
b11111100 _
b10001100000 `
b11110101 b
b1100111100 d
b10001100000 h
b11110101 j
b100010000000 k
b11101110 m
b10101010101 o
b100010000000 s
b11101110 u
b1000010000000 v
b11100111 x
b100101101110 z
b1000010000000 ~
#400000
0!
b101000 $
0*
b101000 -
b101000 2
b101000 8
#405000
1!
b11101110 "!
b10000100000000 #!
b11100111 %!
b11100111 &
b1000111101110 '!
1*
b1010000 4
b101000 6
b1010000 <
b101000 >
b10011100 ?
b1110101 A
b1111000 C
b10011100 G
b1110101 I
b100110000 J
b100001010 L
b100010001 N
b100110000 R
b100001010 T
b1001010000 U
b100000011 W
b1000111010 Y
b1001010000 ]
b100000011 _
b10010000000 `
b11111100 b
b1101010011 d
b10010000000 h
b11111100 j
b100011000000 k
b11110101 m
b10101111100 o
b100011000000 s
b11110101 u
b1000100000000 v
b11101110 x
b100110110101 z
b1000100000000 ~
#410000
0!
b101001 $
0*
b101001 -
b101001 2
b101001 8
#415000
1!
b11110101 "!
b10001000000000 #!
b11101110 %!
b11101110 &
b1001001110101 '!
1*
b1010010 4
b101001 6
b1010010 <
b101001 >
b10100000 ?
b1111000 A
b1111011 C
b10100000 G
b1111000 I
b100111000 J
b100010001 L
b100011000 N
b100111000 R
b100010001 T
b1001100000 U
b100001010 W
b1001001001 Y
b1001100000 ]
b100001010 _
b10010100000 `
b100000011 b
b1101101010 d
b10010100000 h
b100000011 j
b100100000000 k
b11111100 m
b10110100011 o
b100100000000 s
b11111100 u
b1000110000000 v
b11110101 x
b100111111100 z
b1000110000000 ~
#420000
0!
b101010 $
0*
b101010 -
b101010 2
b101010 8
#425000
1!
b11111100 "!
b10001100000000 #!
b11110101 %!
b11110101 &
b1001011111100 '!
1*
b1010100 4
b101010 6
b1010100 <
b101010 >
b10100100 ?
b1111011 A
b1111110 C
b10100100 G
b1111011 I
b101000000 J
b100011000 L
b100011111 N
b101000000 R
b100011000 T
b1001110000 U
b100010001 W
b1001011000 Y
b1001110000 ]
b100010001 _
b10011000000 `
b100001010 b
b1110000001 d
b10011000000 h
b100001010 j
b100101000000 k
b100000011 m
b10111001010 o
b100101000000 s
b100000011 u
b1001000000000 v
b11111100 x
b101001000011 z
b1001000000000 ~
#430000
0!
b101011 $
0*
b101011 -
b101011 2
b101011 8
#435000
1!
b100000011 "!
b10010000000000 #!
b11111100 %!
b11111100 &
b1001110000011 '!
1*
b1010110 4
b101011 6
b1010110 <
b101011 >
b10101000 ?
b1111110 A
b10000001 C
b10101000 G
b1111110 I
b101001000 J
b100011111 L
b100100110 N
b101001000 R
b100011111 T
b1010000000 U
b100011000 W
b1001100111 Y
b1010000000 ]
b100011000 _
b10011100000 `
b100010001 b
b1110011000 d
b10011100000 h
b100010001 j
b100110000000 k
b100001010 m
b10111110001 o
b100110000000 s
b100001010 u
b1001010000000 v
b100000011 x
b101010001010 z
b1001010000000 ~
#440000
0!
b101100 $
0*
b101100 -
b101100 2
b101100 8
#445000
1!
b100001010 "!
b10010100000000 #!
b100000011 %!
b100000011 &
b1010000001010 '!
1*
b1011000 4
b101100 6
b1011000 <
b101100 >
b10101100 ?
b10000001 A
b10000100 C
b10101100 G
b10000001 I
b101010000 J
b100100110 L
b100101101 N
b101010000 R
b100100110 T
b1010010000 U
b100011111 W
b1001110110 Y
b1010010000 ]
b100011111 _
b10100000000 `
b100011000 b
b1110101111 d
b10100000000 h
b100011000 j
b100111000000 k
b100010001 m
b11000011000 o
b100111000000 s
b100010001 u
b1001100000000 v
b100001010 x
b101011010001 z
b1001100000000 ~
#450000
0!
b101101 $
0*
b101101 -
b101101 2
b101101 8
#455000
1!
b100010001 "!
b10011000000000 #!
b100001010 %!
b100001010 &
b1010010010001 '!
1*
b1011010 4
b101101 6
b1011010 <
b101101 >
b10110000 ?
b10000100 A
b10000111 C
b10110000 G
b10000100 I
b101011000 J
b100101101 L
b100110100 N
b101011000 R
b100101101 T
b1010100000 U
b100100110 W
b1010000101 Y
b1010100000 ]
b100100110 _
b10100100000 `
b100011111 b
b1111000110 d
b10100100000 h
b100011111 j
b101000000000 k
b100011000 m
b11000111111 o
b101000000000 s
b100011000 u
b1001110000000 v
b100010001 x
b101100011000 z
b1001110000000 ~
#460000
0!
b101110 $
0*
b101110 -
b101110 2
b101110 8
#465000
1!
b100011000 "!
b10011100000000 #!
b100010001 %!
b100010001 &
b1010100011000 '!
1*
b1011100 4
b101110 6
b1011100 <
b101110 >
b10110100 ?
b10000111 A
b10001010 C
b10110100 G
b10000111 I
b101100000 J
b100110100 L
b100111011 N
b101100000 R
b100110100 T
b1010110000 U
b100101101 W
b1010010100 Y
b1010110000 ]
b100101101 _
b10101000000 `
b100100110 b
b1111011101 d
b10101000000 h
b100100110 j
b101001000000 k
b100011111 m
b11001100110 o
b101001000000 s
b100011111 u
b1010000000000 v
b100011000 x
b101101011111 z
b1010000000000 ~
#470000
0!
b101111 $
b1 %
0*
b101111 -
b1 .
b101111 2
b101111 8
#475000
1!
b100011111 "!
b10100000000000 #!
b100011000 %!
b100011000 &
b1010110011111 '!
1*
b1011110 4
b0 5
b101111 6
b1011110 <
b0 =
b101111 >
b10111000 ?
b10001010 A
b10001101 C
b10111000 G
b10001010 I
b101101000 J
b100111011 L
b101000010 N
b101101000 R
b100111011 T
b1011000000 U
b100110100 W
b1010100011 Y
b1011000000 ]
b100110100 _
b10101100000 `
b100101101 b
b1111110100 d
b10101100000 h
b100101101 j
b101010000000 k
b100100110 m
b11010001101 o
b101010000000 s
b100100110 u
b1010010000000 v
b100011111 x
b101110100110 z
b1010010000000 ~
#480000
0!
b110000 $
0*
b110000 -
b110000 2
b110000 8
#485000
1!
b100100110 "!
b10100100000000 #!
b100011111 %!
b100011111 &
b1011000100110 '!
1*
b1100000 4
b110000 6
b1100000 <
b110000 >
b10111100 ?
b0 @
b101111 A
b10010000 C
b10111100 G
b0 H
b101111 I
b101110000 J
b101000010 L
b11101011 N
b101110000 R
b101000010 T
b1011010000 U
b100111011 W
b1010110010 Y
b1011010000 ]
b100111011 _
b10110000000 `
b100110100 b
b10000001011 d
b10110000000 h
b100110100 j
b101011000000 k
b100101101 m
b11010110100 o
b101011000000 s
b100101101 u
b1010100000000 v
b100100110 x
b101111101101 z
b1010100000000 ~
